[
	{
		"id": "amentity-group-1",
		"title": "Bedrooms",
		"type": "group",
		"items": [
			{ 
				"id": "bedrooms-1", 
				"name": "Bedroom 1",
				"amentityType" : "Bedroom",
				"note": "Sleeper sofa in the living room as well.",
				"amentities": [
					{"id": 1, "name": "King Bed"},
					{"id": 2, "name": "Linens Provided", "qtd": "2"},
					{"id": 3, "name": "Alarm Clock"},
					{"id": 4, "name": "Baby Crib"}
				]
			},
			{ 
				"id": "bedrooms-2", 
				"name": "Master Bedroom",
				"amentityType" : "Studio",
				"note": "Sleeper sofa in the living room as well.",
				"amentities": [
					{"id": 5, "name": "Queen Bed"},
					{"id": 3, "name": "Alarm Clock"},
					{"id": 6, "name": "Futon"}
				]
			},
			{ 
				"id": "bedrooms-3", 
				"name": "Bedroom 2",
				"amentityType" : "Other",
				"note": "Sleeper sofa in the living room as well.",
				"amentities": [
					{"id": 7, "name": "Bunk Bed", "qtd": "3"},
					{"id": 2, "name": "Linens Provided", "qtd": "6"},
					{"id": 3, "name": "Alarm Clock"}
				]				
			},
			{ 
				"id": "bedrooms-4", 
				"name": "Bedroom 3",
				"amentityType" : "Other",
				"note": "Sleeper sofa in the living room as well.",
				"amentities": [
					{"id": 7, "name": "Bunk Bed", "qtd": "2"},
					{"id": 2, "name": "Linens Provided", "qtd": "4"},
					{"id": 3, "name": "Alarm Clock"},
					{"id": 8, "name": "Sleeper Sofa"},
					{"id": 6, "name": "Futon", "qtd": "2"}
				]				
			}		
		]
	}
]