{
	"id": 1,
	"hotelName": "W Barcelona",
	"category" : "Vacation Rental",
	"hotelPhone" : "800-577-1134",
	"roomPrice": "$150",
	"period": "per night",
	"location": "Barcelona, Spain",
	"address": "84 Main Collins Street West Victoria 8007",
	"rate": "4.5",
	"reviews": "245",
	"bedRooms": "4",
	"guests": "5",
	"bathRooms": "3",
	"images": [
		{
			"src": "demo/img/1.jpg",
			"alt" : "Image Description"
		},
		{
			"src": "demo/img/2.jpg",
			"alt" : "Image Description"
		}
	],
	"extra": ["Pet Friendly", "Handcap Accessible", "Parking"],
	"description": "Lorem Ipsum is simply dummy text of the printing and typesetting industry. Lorem Ipsum has been the industry's standard dummy text ever since the 1500s, when an unknown printer took a galley of type and scrambled it to make a type specimen book. It has survived not only five centuries, but also the leap into electronic typesetting, remaining essentially unchanged.",
	"latLng" : [41.3833333,2.1833333],
	"hotelInfo": ["Mountain Views", "Shared outdoor pool(unheated)", "Hot Tub/Jacuzzi", "Fireplace", "A/C or climat control", "Suitable for children", "Suitable for the elderly","Suitable for the elderly","Wheelchair accessible"]
}