﻿{
	"total": "45",
	"rating":{
		"avg": "4.6",
		"five": "24",
		"four": "10",
		"three": "6",
		"two": "8",
		"one": "2"
	},
	"reviews": [
		{
			"id" : "review-1",
			"avatar" : "demo/img/4.jpg",
			"name" : "Andrea",
			"comment": "Nick was, hyperbole aside, an excellent host; a pleasure to communicate with, he even checked back in with us a few hours after our arrival. The apartment is a dream - comfortable, cozy, spacious, perfectly lit.",
			"rate": "5",
			"locationdate": "From Washington, DC - January 2014",
			"answer": "Dear Jim and Family. Lorem Ipsum is simply dummy text of the printing and typesetting industry. Lorem Ipsum has been the industry's standard dummy text ever since the 1500s, when an unknown printer took a galley of type and scrambled it to make a type specimen book."
		},
		{
			"id" : "review-2",
			"avatar" : "demo/img/6.jpg",
			"name" : "David",
			"comment": "Nick was, hyperbole aside, an excellent host; a pleasure to communicate with, he even checked back in with us a few hours after our arrival. The apartment is a dream - comfortable, cozy, spacious, perfectly lit.",
			"rate": "3.5",
			"locationdate": "From New York, NY - December 2013",
			"answer": "Lorem Ipsum is simply dummy text of the printing and typesetting industry. Lorem Ipsum has been the industry's standard dummy text ever since the 1500s, when an unknown printer took a galley of type and scrambled it to make a type specimen book."
			
		},
		{
			"id" : "review-3",
			"avatar" : "demo/img/2.jpg",
			"name" : "Jimmy",
			"comment": "Nick was, hyperbole aside, an excellent host; a pleasure to communicate with, he even checked back in with us a few hours after our arrival. The apartment is a dream - comfortable, cozy, spacious, perfectly lit.",
			"rate": "1",
			"locationdate": "From Philadelphia, PA - December 2015"
		}
	]
}