[
	{ 
		"id": "1",
		"name": "Bedroom", 
		"type": "bedroom", 
		"roomTypes": [
			{
				"id" : "1",
				"name" : "Bedroom", 
				"value": "Bedroom" 
			},
			{
				"id" : "2",
				"name" : "Studio", 
				"value": "Studio" 
			},
			{ 
				"id" : "3",
				"name" : "Other", 
				"value": "Other" 
			}
		]
	},
	{ 
		"id": "2", 
		"name": "Bathroom", 
		"type": "bathroom", 
		"roomTypes": [
					{
						"id" : "1",
						"name" : "Full", 
						"value": "Full" 
					},
					{
						"id" : "2",
						"name" : "Half", 
						"value": "Half" 
					},
					{ 
						"id" : "3",
						"name" : "Jack-n-Jill", 
						"value": "Jack-n-Jill" 
					}
				]		
	},
	{ 
		"id": "3", 
		"name": "Kitchen", 
		"type": "amentities" 
	},
	{ 
		"id": "4", 
		"name": "Outdoors", 
		"type": "amentities"
	},
	{ 
		"id": "5", 
		"name": "Suitability", 
		"type": "amentities"
	}
]	