<?xml version="1.0" encoding="iso-8859-1"?>
<!-- Generator: Adobe Illustrator 16.0.0, SVG Export Plug-In . SVG Version: 6.00 Build 0)  -->
<!DOCTYPE svg PUBLIC "-//W3C//DTD SVG 1.1//EN" "http://www.w3.org/Graphics/SVG/1.1/DTD/svg11.dtd">
<svg xmlns="http://www.w3.org/2000/svg" xmlns:xlink="http://www.w3.org/1999/xlink" version="1.1" id="Capa_1" x="0px" y="0px" width="512px" height="512px" viewBox="0 0 906 906" style="enable-background:new 0 0 906 906;" xml:space="preserve">
<g>
	<g>
		<path d="M881,158.55H25c-13.8,0-25,11.2-25,25v538.9c0,13.8,11.2,25,25,25h856c13.8,0,25-11.2,25-25v-538.9    C906,169.75,894.8,158.55,881,158.55z M349.8,590.45c0,13.8-11.2,25-25,25h-10.2c0.101-1.7,0.2-46.601,0.2-46.601    c0-27.6-22.399-50-50-50h-71.1c-27.6,0-50,22.4-50,50c0,0,0.1,44.9,0.2,46.601h-10.2c-13.8,0-25-11.2-25-25v-274.8    c0-13.8,11.2-25,25-25h191.2c13.8,0,25,11.2,25,25v274.8H349.8z M797.5,590.45c0,13.8-11.2,25-25,25H458.2c-13.8,0-25-11.2-25-25    V573.35c0-13.8,11.2-25,25-25h314.3c13.8,0,25,11.2,25,25V590.45z M797.5,461.649c0,13.801-11.2,25-25,25H458.2    c-13.8,0-25-11.199-25-25v-17.1c0-13.8,11.2-25,25-25h314.3c13.8,0,25,11.2,25,25V461.649z M797.5,332.75c0,13.8-11.2,25-25,25    H458.2c-13.8,0-25-11.2-25-25v-17.1c0-13.8,11.2-25,25-25h314.3c13.8,0,25,11.2,25,25V332.75z" fill="#333333"/>
		<circle cx="229.1" cy="412.45" r="76.4" fill="#333333"/>
	</g>
</g>
<g>
</g>
<g>
</g>
<g>
</g>
<g>
</g>
<g>
</g>
<g>
</g>
<g>
</g>
<g>
</g>
<g>
</g>
<g>
</g>
<g>
</g>
<g>
</g>
<g>
</g>
<g>
</g>
<g>
</g>
</svg>
